DataWork
…
Work Types Associated With Interchanges

interchange <- cleanplan %>% filter(grepl('INTERCHANGE', Location))

interchange["County"] <- tolower(interchange$County)
interchange["Route"] <- as.character(interchange$Route)
interchange

## # A tibble: 90 x 13
## # Groups:   County, District, Route, Location [46]
##    State County District Route Location Miles Work  `2021` `2022` `2023` `2024`
##    <chr> <chr>     <dbl> <chr> <chr>    <dbl> <chr>  <dbl>  <dbl>  <dbl>  <dbl>
##  1 Iowa  adair         4 25    I-80 IN~  NA   BRID~     NA    333     NA     NA
##  2 Iowa  benton        6 30    W JCT U~  NA   EROS~    228     NA     NA     NA
##  3 Iowa  benton        6 30    W JCT U~  NA   TRAF~     NA     NA     75     NA
##  4 Iowa  benton        6 380   IA 150 ~  NA   BRID~     NA     NA     NA     NA
##  5 Iowa  bucha~        6 20    IA 150 ~  NA   BRID~     NA     NA     NA    497
##  6 Iowa  cass          4 80    IA 148 ~  NA   BRID~     NA     NA     NA     NA
##  7 Iowa  cedar         6 80    CO RD Y~   0.5 PAVE~     NA     NA   1486     NA
##  8 Iowa  cedar         6 80    W IA 38~  NA   BRID~     NA     NA     NA    500
##  9 Iowa  cerro~        2 35    CO RD B~  NA   BRID~     NA     NA     NA     NA
## 10 Iowa  cerro~        2 35    CO RD B~  NA   BRID~     NA     NA     NA     NA
## # ... with 80 more rows, and 2 more variables: `2025` <dbl>,
## #   totalProjection <dbl>
…
