Final_Project
…
range <- split(projects, cut(projects$cost, c(0, 50000, 100000, 1000000)))
head(range)

## $`(0,5e+04]`
## # A tibble: 629 x 5
## # Groups:   County, District, Route [267]
##    County    District Route Location                                        cost
##    <chr>        <dbl> <dbl> <chr>                                          <dbl>
##  1 Adair            4    25 GREENFIELD TO I-80                              1350
##  2 Adair            4    25 I-80 INTERCHANGE                                 333
##  3 Adair            4    80 CASS CO TO IA 25 (WB)                           8977
##  4 Adair            4    80 IA 25 TO MADISON CO (EB)                        2866
##  5 Adair            4    92 GRAND RIVER 1.0 MI W OF CO RD P28                490
##  6 Adair            4    92 W FORK NODAWAY RIVER 1.6 MI E OF CO RD N51      1800
##  7 Adams            4   148 MIDDLE NODAWAY RIVER 1.8 MI S OF S JCT CO RD ~   712
##  8 Allamakee        2     9 MISSISSIPPI RIVER BRIDGE IN LANSING            37124
##  9 Allamakee        2     9 MISSISSIPPI RIVER IN LANSING                     100
## 10 Allamakee        2    76 MINERAL CREEK 1.6 MI S OF CO RD A26              200
## # ... with 619 more rows
## 
## $`(5e+04,1e+05]`
…
